{
    "code": 200,
    "message": "成功",
    "data": {
        "contentList": {
            "content": [
                {
                    "id": 58353,
                    "directoryId": 4,
                    "directoryIds": "1|4",
                    "name": "克拉玛依市世界魔鬼城景区",
                    "provinceCodeDb": "650000",
                    "provinceName": "新疆",
                    "provinceCode2": null,
                    "provinceName2": null,
                    "provinceCode3": null,
                    "provinceName3": null,
                    "cityCode": null,
                    "cityName": null,
                    "gradesName": "5A",
                    "column8": null,
                    "isDel": false,
                    "code": null,
                    "type": null,
                    "year": "2020年",
                    "introduction": null,
                    "phone": null,
                    "fax": null,
                    "mailBox": null,
                    "postCode": null,
                    "webPath": null,
                    "localPath": null,
                    "pdfUpdateTime": null,
                    "country": null,
                    "englishName": null,
                    "contentSource": null,
                    "keywords": null,
                    "author": null,
                    "contentDescription": null,
                    "contentImage": null,
                    "createTime": "2024-02-19T08:57:15.170+00:00",
                    "updateTime": "2024-02-19T08:57:15.170+00:00",
                    "provinceCode": "650000"
                },
                {
                    "id": 58354,
                    "directoryId": 4,
                    "directoryIds": "1|4",
                    "name": "博尔塔拉蒙古自治州赛里木湖景区",
                    "provinceCodeDb": "650000",
                    "provinceName": "新疆",
                    "provinceCode2": null,
                    "provinceName2": null,
                    "provinceCode3": null,
                    "provinceName3": null,
                    "cityCode": null,
                    "cityName": null,
                    "gradesName": "5A",
                    "column8": null,
                    "isDel": false,
                    "code": null,
                    "type": null,
                    "year": "2021年",
                    "introduction": null,
                    "phone": null,
                    "fax": null,
                    "mailBox": null,
                    "postCode": null,
                    "webPath": null,
                    "localPath": null,
                    "pdfUpdateTime": null,
                    "country": null,
                    "englishName": null,
                    "contentSource": null,
                    "keywords": null,
                    "author": null,
                    "contentDescription": null,
                    "contentImage": null,
                    "createTime": "2024-02-19T08:57:15.170+00:00",
                    "updateTime": "2024-02-19T08:57:15.170+00:00",
                    "provinceCode": "650000"
                },
                {
                    "id": 58355,
                    "directoryId": 4,
                    "directoryIds": "1|4",
                    "name": "昌吉回族自治州江布拉克景区",
                    "provinceCodeDb": "650000",
                    "provinceName": "新疆",
                    "provinceCode2": null,
                    "provinceName2": null,
                    "provinceCode3": null,
                    "provinceName3": null,
                    "cityCode": null,
                    "cityName": null,
                    "gradesName": "5A",
                    "column8": null,
                    "isDel": false,
                    "code": null,
                    "type": null,
                    "year": "2022年",
                    "introduction": null,
                    "phone": null,
                    "fax": null,
                    "mailBox": null,
                    "postCode": null,
                    "webPath": null,
                    "localPath": null,
                    "pdfUpdateTime": null,
                    "country": null,
                    "englishName": null,
                    "contentSource": null,
                    "keywords": null,
                    "author": null,
                    "contentDescription": null,
                    "contentImage": null,
                    "createTime": "2024-02-19T08:57:15.170+00:00",
                    "updateTime": "2024-02-19T08:57:15.170+00:00",
                    "provinceCode": "650000"
                },
                {
                    "id": 58356,
                    "directoryId": 4,
                    "directoryIds": null,
                    "name": "兵团十师185团白沙湖景区（阿勒泰地区）",
                    "provinceCodeDb": "650091",
                    "provinceName": "新疆生产建设兵团",
                    "provinceCode2": null,
                    "provinceName2": null,
                    "provinceCode3": null,
                    "provinceName3": null,
                    "cityCode": null,
                    "cityName": null,
                    "gradesName": "5A",
                    "column8": null,
                    "isDel": false,
                    "code": null,
                    "type": "data_type",
                    "year": "2017年",
                    "introduction": null,
                    "phone": null,
                    "fax": null,
                    "mailBox": null,
                    "postCode": null,
                    "webPath": "",
                    "localPath": null,
                    "pdfUpdateTime": null,
                    "country": null,
                    "englishName": null,
                    "contentSource": null,
                    "keywords": null,
                    "author": null,
                    "contentDescription": null,
                    "contentImage": null,
                    "createTime": null,
                    "updateTime": null,
                    "provinceCode": "650091"
                },
                {
                    "id": 58357,
                    "directoryId": 4,
                    "directoryIds": null,
                    "name": "兵团阿拉尔市塔克拉玛干•三五九旅文化旅游区",
                    "provinceCodeDb": "650091",
                    "provinceName": "新疆生产建设兵团",
                    "provinceCode2": null,
                    "provinceName2": null,
                    "provinceCode3": null,
                    "provinceName3": null,
                    "cityCode": null,
                    "cityName": null,
                    "gradesName": "5A",
                    "column8": null,
                    "isDel": false,
                    "code": null,
                    "type": "data_type",
                    "year": "2021年",
                    "introduction": null,
                    "phone": null,
                    "fax": null,
                    "mailBox": null,
                    "postCode": null,
                    "webPath": "",
                    "localPath": null,
                    "pdfUpdateTime": null,
                    "country": null,
                    "englishName": null,
                    "contentSource": null,
                    "keywords": null,
                    "author": null,
                    "contentDescription": null,
                    "contentImage": null,
                    "createTime": null,
                    "updateTime": null,
                    "provinceCode": "650091"
                }
            ],
            "pageable": {
                "sort": {
                    "sorted": true,
                    "unsorted": false,
                    "empty": false
                },
                "pageNumber": 67,
                "pageSize": 5,
                "offset": 335,
                "unpaged": false,
                "paged": true
            },
            "totalPages": 68,
            "totalElements": 340,
            "last": true,
            "sort": {
                "sorted": true,
                "unsorted": false,
                "empty": false
            },
            "first": false,
            "numberOfElements": 5,
            "size": 5,
            "number": 67,
            "empty": false
        }
    }
}